class_prep5
…
theme_set(theme_minimal())
hpi_df <- read_csv("https://raw.githubusercontent.com/highamm/ds234_quarto/main/data_online/hpi-tidy.csv")

Rows: 151 Columns: 11
── Column specification ────────────────────────────────────────────────────────
Delimiter: ","
chr (3): Country, GovernanceRank, Region
dbl (8): HPIRank, LifeExpectancy, Wellbeing, HappyLifeYears, Footprint, Happ...

ℹ Use `spec()` to retrieve the full column specification for this data.
ℹ Specify the column types or set `show_col_types = FALSE` to quiet this message.

hpi_df

# A tibble: 151 × 11
   HPIRank Country     LifeExpectancy Wellbeing HappyLifeYears Footprint
     <dbl> <chr>                <dbl>     <dbl>          <dbl>     <dbl>
 1     109 Afghanistan           48.7      4.76           29.0     0.540
 2      18 Albania               76.9      5.27           48.8     1.81 
 3      26 Algeria               73.1      5.24           46.2     1.65 
 4     127 Angola                51.1      4.21           28.2     0.891
 5      17 Argentina             75.9      6.44           55.0     2.71 
 6      53 Armenia               74.2      4.37           41.9     1.73 
 7      76 Australia             81.9      7.41           65.5     6.68 
 8      48 Austria               80.9      7.35           64.3     5.29 
 9      80 Azerbaijan            70.7      4.22           39.1     1.97 
10     146 Bahrain               75.1      4.55           43.5     6.65 
# ℹ 141 more rows
# ℹ 5 more variables: HappyPlanetIndex <dbl>, Population <dbl>,
#   GDPcapita <dbl>, GovernanceRank <chr>, Region <chr>
…
hpi_df = hpi_df %>%
  mutate(
    decade = case_when(
      LifeExpectancy >= 80 ~ "80s",
      LifeExpectancy >= 70 & LifeExpectancy < 80 ~ "70s",
      LifeExpectancy < 70 ~ "Below 70s"
    )
  )

hpi_df %>%
  arrange(desc(LifeExpectancy))

# A tibble: 151 × 13
   HPIRank Country     LifeExpectancy Wellbeing HappyLifeYears Footprint
     <dbl> <chr>                <dbl>     <dbl>          <dbl>     <dbl>
 1      45 Japan                 83.4      6.06           58.0      4.17
 2     102 Hong Kong             82.8      5.64           54.9      5.81
 3      34 Switzerland           82.3      7.52           66.5      5.01
 4      76 Australia             81.9      7.41           65.5      6.68
 5      51 Italy                 81.9      6.35           58.8      4.52
 6      88 Iceland               81.8      6.89           62.1      6.54
 7      15 Israel                81.6      7.36           64.9      3.96
 8      50 France                81.5      6.80           61.3      4.91
 9      62 Spain                 81.4      6.19           57.4      4.74
10      52 Sweden                81.4      7.50           65.6      5.71
# ℹ 141 more rows
# ℹ 7 more variables: HappyPlanetIndex <dbl>, Population <dbl>,
#   GDPcapita <dbl>, GovernanceRank <chr>, Region <chr>,
#   WellbeingFootprint <dbl>, decade <chr>

hpi_df %>%
  select(Country, LifeExpectancy)

# A tibble: 151 × 2
   Country     LifeExpectancy
   <chr>                <dbl>
 1 Afghanistan           48.7
 2 Albania               76.9
 3 Algeria               73.1
 4 Angola                51.1
 5 Argentina             75.9
 6 Armenia               74.2
 7 Australia             81.9
 8 Austria               80.9
 9 Azerbaijan            70.7
10 Bahrain               75.1
# ℹ 141 more rows
…
hpi_df %>%
  filter(Region == "Western World")

# A tibble: 24 × 13
   HPIRank Country   LifeExpectancy Wellbeing HappyLifeYears Footprint
     <dbl> <chr>              <dbl>     <dbl>          <dbl>     <dbl>
 1      76 Australia           81.9      7.41           65.5      6.68
 2      48 Austria             80.9      7.35           64.3      5.29
 3     107 Belgium             80        6.85           60.5      7.11
 4      65 Canada              81        7.65           66.3      6.43
 5      59 Cyprus              79.6      6.39           57.4      4.44
 6     110 Denmark             78.8      7.77           65.2      8.25
 7      70 Finland             80        7.39           63.9      6.21
 8      50 France              81.5      6.80           61.3      4.91
 9      46 Germany             80.4      6.72           60.0      4.57
10      83 Greece              79.9      5.84           54.2      4.92
# ℹ 14 more rows
# ℹ 7 more variables: HappyPlanetIndex <dbl>, Population <dbl>,
#   GDPcapita <dbl>, GovernanceRank <chr>, Region <chr>,
#   WellbeingFootprint <dbl>, decade <chr>
…
